Portfolio_5
…
Wow, so about UIUC: they have no Assistant, Emeritus, or Full woman faculty. I wish I could say thats why theyre ranked so low, but Philosophers arent really bothered by that kind of thing. Now check out UofOs Full Professors! That is seriously unbelievable. Their tenure track is an even split. Lets do one last thing. Lets rank the programs by percentage of TT faculty.

faculty %>%
  arrange(desc(TT))

## # A tibble: 98 x 9
##    School        Total    TT  Full Associate Assistant Emeritus  rank rank_group
##    <chr>         <dbl> <dbl> <dbl>     <dbl>     <dbl>    <dbl> <int> <chr>     
##  1 University o~ 0.381 0.5   0.286     0.8      NA        0        83 81 -100   
##  2 University o~ 0.474 0.5   0.8       0         0.5      0.333    90 81 -100   
##  3 University o~ 0.435 0.5   0.571     0.286     0.75     0        94 81 -100   
##  4 Emory Univer~ 0.476 0.467 0.3       0.75      1        0.4      59 41-60     
##  5 Columbia Uni~ 0.448 0.462 0.368     0.667     0.75     0        10 1-20      
##  6 University o~ 0.471 0.438 0.167     0.5       0.75     0        85 81 -100   
##  7 Indiana Univ~ 0.333 0.429 0.2       1         1        0.214    25 20-40     
##  8 SUNY Bingham~ 0.429 0.429 0.5       0.333    NA       NA        69 61 - 80   
##  9 University o~ 0.385 0.417 0.2       0.5       0.667    0        46 41-60     
## 10 University o~ 0.364 0.417 0.4       0.5       0.333    0.231    95 81 -100   
## # ... with 88 more rows
…
